G04 (created by PCBNEW (2013-07-07 BZR 4022)-stable) date 2/8/2015 11:44:31 PM*
%MOIN*%
G04 Gerber Fmt 3.4, Leading zero omitted, Abs format*
%FSLAX34Y34*%
G01*
G70*
G90*
G04 APERTURE LIST*
%ADD10C,0.00590551*%
%ADD11C,0.056*%
%ADD12C,0.027*%
%ADD13C,0.02*%
%ADD14C,0.007*%
G04 APERTURE END LIST*
G54D10*
G54D11*
X82500Y-52500D03*
X82500Y-53500D03*
X82500Y-54500D03*
X82500Y-55500D03*
X82500Y-56500D03*
X82500Y-51500D03*
X84500Y-55500D03*
X84500Y-54500D03*
X84500Y-53500D03*
X84500Y-52500D03*
X84500Y-51500D03*
X84500Y-56500D03*
G54D12*
X83000Y-55000D03*
G54D13*
X82500Y-51500D02*
X83000Y-51500D01*
X83500Y-54500D02*
X83000Y-55000D01*
X83500Y-52000D02*
X83500Y-54500D01*
X83000Y-51500D02*
X83500Y-52000D01*
X82500Y-55500D02*
X83000Y-55500D01*
X84000Y-54500D02*
X84500Y-54500D01*
X83000Y-55500D02*
X84000Y-54500D01*
G54D10*
G36*
X84890Y-56890D02*
X84886Y-56890D01*
X84886Y-52476D01*
X84886Y-51476D01*
X84874Y-51401D01*
X84847Y-51330D01*
X84834Y-51306D01*
X84781Y-51274D01*
X84725Y-51331D01*
X84725Y-51218D01*
X84693Y-51165D01*
X84625Y-51133D01*
X84551Y-51116D01*
X84476Y-51113D01*
X84401Y-51125D01*
X84330Y-51152D01*
X84306Y-51165D01*
X84274Y-51218D01*
X84500Y-51443D01*
X84725Y-51218D01*
X84725Y-51331D01*
X84556Y-51500D01*
X84781Y-51725D01*
X84834Y-51693D01*
X84866Y-51625D01*
X84883Y-51551D01*
X84886Y-51476D01*
X84886Y-52476D01*
X84874Y-52401D01*
X84847Y-52330D01*
X84834Y-52306D01*
X84781Y-52274D01*
X84725Y-52331D01*
X84725Y-52218D01*
X84725Y-51781D01*
X84500Y-51556D01*
X84443Y-51613D01*
X84443Y-51500D01*
X84218Y-51274D01*
X84165Y-51306D01*
X84133Y-51374D01*
X84116Y-51448D01*
X84113Y-51523D01*
X84125Y-51598D01*
X84152Y-51669D01*
X84165Y-51693D01*
X84218Y-51725D01*
X84443Y-51500D01*
X84443Y-51613D01*
X84274Y-51781D01*
X84306Y-51834D01*
X84374Y-51866D01*
X84448Y-51883D01*
X84523Y-51886D01*
X84598Y-51874D01*
X84669Y-51847D01*
X84693Y-51834D01*
X84725Y-51781D01*
X84725Y-52218D01*
X84693Y-52165D01*
X84625Y-52133D01*
X84551Y-52116D01*
X84476Y-52113D01*
X84401Y-52125D01*
X84330Y-52152D01*
X84306Y-52165D01*
X84274Y-52218D01*
X84500Y-52443D01*
X84725Y-52218D01*
X84725Y-52331D01*
X84556Y-52500D01*
X84781Y-52725D01*
X84834Y-52693D01*
X84866Y-52625D01*
X84883Y-52551D01*
X84886Y-52476D01*
X84886Y-56890D01*
X84885Y-56890D01*
X84885Y-56462D01*
X84885Y-55462D01*
X84885Y-54462D01*
X84885Y-53462D01*
X84870Y-53388D01*
X84841Y-53318D01*
X84799Y-53255D01*
X84746Y-53201D01*
X84725Y-53187D01*
X84725Y-52781D01*
X84500Y-52556D01*
X84443Y-52613D01*
X84443Y-52500D01*
X84218Y-52274D01*
X84165Y-52306D01*
X84133Y-52374D01*
X84116Y-52448D01*
X84113Y-52523D01*
X84125Y-52598D01*
X84152Y-52669D01*
X84165Y-52693D01*
X84218Y-52725D01*
X84443Y-52500D01*
X84443Y-52613D01*
X84274Y-52781D01*
X84306Y-52834D01*
X84374Y-52866D01*
X84448Y-52883D01*
X84523Y-52886D01*
X84598Y-52874D01*
X84669Y-52847D01*
X84693Y-52834D01*
X84725Y-52781D01*
X84725Y-53187D01*
X84684Y-53159D01*
X84614Y-53130D01*
X84540Y-53115D01*
X84464Y-53114D01*
X84390Y-53128D01*
X84320Y-53157D01*
X84257Y-53198D01*
X84203Y-53251D01*
X84160Y-53313D01*
X84131Y-53383D01*
X84115Y-53456D01*
X84114Y-53532D01*
X84128Y-53606D01*
X84155Y-53676D01*
X84196Y-53740D01*
X84249Y-53794D01*
X84311Y-53837D01*
X84380Y-53867D01*
X84454Y-53884D01*
X84529Y-53885D01*
X84604Y-53872D01*
X84674Y-53845D01*
X84738Y-53804D01*
X84792Y-53752D01*
X84836Y-53691D01*
X84867Y-53622D01*
X84883Y-53548D01*
X84885Y-53462D01*
X84885Y-54462D01*
X84870Y-54388D01*
X84841Y-54318D01*
X84799Y-54255D01*
X84746Y-54201D01*
X84684Y-54159D01*
X84614Y-54130D01*
X84540Y-54115D01*
X84464Y-54114D01*
X84390Y-54128D01*
X84320Y-54157D01*
X84257Y-54198D01*
X84203Y-54251D01*
X84173Y-54295D01*
X84000Y-54295D01*
X83981Y-54296D01*
X83962Y-54298D01*
X83961Y-54298D01*
X83960Y-54298D01*
X83942Y-54304D01*
X83923Y-54309D01*
X83922Y-54310D01*
X83921Y-54310D01*
X83905Y-54319D01*
X83888Y-54328D01*
X83887Y-54328D01*
X83886Y-54329D01*
X83871Y-54341D01*
X83857Y-54353D01*
X83855Y-54354D01*
X83855Y-54354D01*
X83855Y-54354D01*
X83855Y-54355D01*
X83704Y-54505D01*
X83704Y-54502D01*
X83704Y-54500D01*
X83704Y-54500D01*
X83704Y-54500D01*
X83705Y-54500D01*
X83705Y-52000D01*
X83703Y-51981D01*
X83701Y-51962D01*
X83701Y-51961D01*
X83701Y-51960D01*
X83695Y-51942D01*
X83690Y-51923D01*
X83689Y-51922D01*
X83689Y-51921D01*
X83680Y-51905D01*
X83671Y-51888D01*
X83671Y-51887D01*
X83670Y-51886D01*
X83658Y-51871D01*
X83646Y-51857D01*
X83645Y-51855D01*
X83645Y-51855D01*
X83645Y-51855D01*
X83644Y-51855D01*
X83144Y-51355D01*
X83130Y-51343D01*
X83115Y-51330D01*
X83114Y-51330D01*
X83114Y-51329D01*
X83097Y-51320D01*
X83080Y-51311D01*
X83079Y-51311D01*
X83078Y-51310D01*
X83060Y-51305D01*
X83042Y-51299D01*
X83041Y-51299D01*
X83040Y-51299D01*
X83021Y-51297D01*
X83002Y-51295D01*
X83000Y-51295D01*
X83000Y-51295D01*
X83000Y-51295D01*
X83000Y-51295D01*
X82826Y-51295D01*
X82799Y-51255D01*
X82746Y-51201D01*
X82684Y-51159D01*
X82614Y-51130D01*
X82540Y-51115D01*
X82464Y-51114D01*
X82390Y-51128D01*
X82320Y-51157D01*
X82257Y-51198D01*
X82203Y-51251D01*
X82160Y-51313D01*
X82131Y-51383D01*
X82115Y-51456D01*
X82114Y-51532D01*
X82128Y-51606D01*
X82155Y-51676D01*
X82196Y-51740D01*
X82249Y-51794D01*
X82311Y-51837D01*
X82380Y-51867D01*
X82454Y-51884D01*
X82529Y-51885D01*
X82604Y-51872D01*
X82674Y-51845D01*
X82738Y-51804D01*
X82792Y-51752D01*
X82826Y-51705D01*
X82915Y-51705D01*
X83295Y-52084D01*
X83295Y-54415D01*
X82943Y-54766D01*
X82931Y-54768D01*
X82888Y-54786D01*
X82885Y-54788D01*
X82885Y-54462D01*
X82885Y-53462D01*
X82885Y-52462D01*
X82870Y-52388D01*
X82841Y-52318D01*
X82799Y-52255D01*
X82746Y-52201D01*
X82684Y-52159D01*
X82614Y-52130D01*
X82540Y-52115D01*
X82464Y-52114D01*
X82390Y-52128D01*
X82320Y-52157D01*
X82257Y-52198D01*
X82203Y-52251D01*
X82160Y-52313D01*
X82131Y-52383D01*
X82115Y-52456D01*
X82114Y-52532D01*
X82128Y-52606D01*
X82155Y-52676D01*
X82196Y-52740D01*
X82249Y-52794D01*
X82311Y-52837D01*
X82380Y-52867D01*
X82454Y-52884D01*
X82529Y-52885D01*
X82604Y-52872D01*
X82674Y-52845D01*
X82738Y-52804D01*
X82792Y-52752D01*
X82836Y-52691D01*
X82867Y-52622D01*
X82883Y-52548D01*
X82885Y-52462D01*
X82885Y-53462D01*
X82870Y-53388D01*
X82841Y-53318D01*
X82799Y-53255D01*
X82746Y-53201D01*
X82684Y-53159D01*
X82614Y-53130D01*
X82540Y-53115D01*
X82464Y-53114D01*
X82390Y-53128D01*
X82320Y-53157D01*
X82257Y-53198D01*
X82203Y-53251D01*
X82160Y-53313D01*
X82131Y-53383D01*
X82115Y-53456D01*
X82114Y-53532D01*
X82128Y-53606D01*
X82155Y-53676D01*
X82196Y-53740D01*
X82249Y-53794D01*
X82311Y-53837D01*
X82380Y-53867D01*
X82454Y-53884D01*
X82529Y-53885D01*
X82604Y-53872D01*
X82674Y-53845D01*
X82738Y-53804D01*
X82792Y-53752D01*
X82836Y-53691D01*
X82867Y-53622D01*
X82883Y-53548D01*
X82885Y-53462D01*
X82885Y-54462D01*
X82870Y-54388D01*
X82841Y-54318D01*
X82799Y-54255D01*
X82746Y-54201D01*
X82684Y-54159D01*
X82614Y-54130D01*
X82540Y-54115D01*
X82464Y-54114D01*
X82390Y-54128D01*
X82320Y-54157D01*
X82257Y-54198D01*
X82203Y-54251D01*
X82160Y-54313D01*
X82131Y-54383D01*
X82115Y-54456D01*
X82114Y-54532D01*
X82128Y-54606D01*
X82155Y-54676D01*
X82196Y-54740D01*
X82249Y-54794D01*
X82311Y-54837D01*
X82380Y-54867D01*
X82454Y-54884D01*
X82529Y-54885D01*
X82604Y-54872D01*
X82674Y-54845D01*
X82738Y-54804D01*
X82792Y-54752D01*
X82836Y-54691D01*
X82867Y-54622D01*
X82883Y-54548D01*
X82885Y-54462D01*
X82885Y-54788D01*
X82848Y-54812D01*
X82815Y-54844D01*
X82788Y-54883D01*
X82770Y-54927D01*
X82760Y-54973D01*
X82759Y-55020D01*
X82768Y-55066D01*
X82785Y-55110D01*
X82811Y-55149D01*
X82843Y-55183D01*
X82882Y-55210D01*
X82925Y-55229D01*
X82970Y-55239D01*
X82915Y-55295D01*
X82826Y-55295D01*
X82799Y-55255D01*
X82746Y-55201D01*
X82684Y-55159D01*
X82614Y-55130D01*
X82540Y-55115D01*
X82464Y-55114D01*
X82390Y-55128D01*
X82320Y-55157D01*
X82257Y-55198D01*
X82203Y-55251D01*
X82160Y-55313D01*
X82131Y-55383D01*
X82115Y-55456D01*
X82114Y-55532D01*
X82128Y-55606D01*
X82155Y-55676D01*
X82196Y-55740D01*
X82249Y-55794D01*
X82311Y-55837D01*
X82380Y-55867D01*
X82454Y-55884D01*
X82529Y-55885D01*
X82604Y-55872D01*
X82674Y-55845D01*
X82738Y-55804D01*
X82792Y-55752D01*
X82826Y-55705D01*
X83000Y-55705D01*
X83018Y-55703D01*
X83037Y-55701D01*
X83038Y-55701D01*
X83039Y-55701D01*
X83057Y-55695D01*
X83076Y-55690D01*
X83077Y-55689D01*
X83078Y-55689D01*
X83094Y-55680D01*
X83111Y-55671D01*
X83112Y-55671D01*
X83113Y-55670D01*
X83128Y-55658D01*
X83142Y-55646D01*
X83144Y-55645D01*
X83144Y-55645D01*
X83144Y-55645D01*
X83144Y-55644D01*
X84084Y-54705D01*
X84174Y-54705D01*
X84196Y-54740D01*
X84249Y-54794D01*
X84311Y-54837D01*
X84380Y-54867D01*
X84454Y-54884D01*
X84529Y-54885D01*
X84604Y-54872D01*
X84674Y-54845D01*
X84738Y-54804D01*
X84792Y-54752D01*
X84836Y-54691D01*
X84867Y-54622D01*
X84883Y-54548D01*
X84885Y-54462D01*
X84885Y-55462D01*
X84870Y-55388D01*
X84841Y-55318D01*
X84799Y-55255D01*
X84746Y-55201D01*
X84684Y-55159D01*
X84614Y-55130D01*
X84540Y-55115D01*
X84464Y-55114D01*
X84390Y-55128D01*
X84320Y-55157D01*
X84257Y-55198D01*
X84203Y-55251D01*
X84160Y-55313D01*
X84131Y-55383D01*
X84115Y-55456D01*
X84114Y-55532D01*
X84128Y-55606D01*
X84155Y-55676D01*
X84196Y-55740D01*
X84249Y-55794D01*
X84311Y-55837D01*
X84380Y-55867D01*
X84454Y-55884D01*
X84529Y-55885D01*
X84604Y-55872D01*
X84674Y-55845D01*
X84738Y-55804D01*
X84792Y-55752D01*
X84836Y-55691D01*
X84867Y-55622D01*
X84883Y-55548D01*
X84885Y-55462D01*
X84885Y-56462D01*
X84870Y-56388D01*
X84841Y-56318D01*
X84799Y-56255D01*
X84746Y-56201D01*
X84684Y-56159D01*
X84614Y-56130D01*
X84540Y-56115D01*
X84464Y-56114D01*
X84390Y-56128D01*
X84320Y-56157D01*
X84257Y-56198D01*
X84203Y-56251D01*
X84160Y-56313D01*
X84131Y-56383D01*
X84115Y-56456D01*
X84114Y-56532D01*
X84128Y-56606D01*
X84155Y-56676D01*
X84196Y-56740D01*
X84249Y-56794D01*
X84311Y-56837D01*
X84380Y-56867D01*
X84454Y-56884D01*
X84529Y-56885D01*
X84604Y-56872D01*
X84674Y-56845D01*
X84738Y-56804D01*
X84792Y-56752D01*
X84836Y-56691D01*
X84867Y-56622D01*
X84883Y-56548D01*
X84885Y-56462D01*
X84885Y-56890D01*
X82886Y-56890D01*
X82886Y-56476D01*
X82874Y-56401D01*
X82847Y-56330D01*
X82834Y-56306D01*
X82781Y-56274D01*
X82725Y-56331D01*
X82725Y-56218D01*
X82693Y-56165D01*
X82625Y-56133D01*
X82551Y-56116D01*
X82476Y-56113D01*
X82401Y-56125D01*
X82330Y-56152D01*
X82306Y-56165D01*
X82274Y-56218D01*
X82500Y-56443D01*
X82725Y-56218D01*
X82725Y-56331D01*
X82556Y-56500D01*
X82781Y-56725D01*
X82834Y-56693D01*
X82866Y-56625D01*
X82883Y-56551D01*
X82886Y-56476D01*
X82886Y-56890D01*
X82725Y-56890D01*
X82725Y-56781D01*
X82500Y-56556D01*
X82443Y-56613D01*
X82443Y-56500D01*
X82218Y-56274D01*
X82165Y-56306D01*
X82133Y-56374D01*
X82116Y-56448D01*
X82113Y-56523D01*
X82125Y-56598D01*
X82152Y-56669D01*
X82165Y-56693D01*
X82218Y-56725D01*
X82443Y-56500D01*
X82443Y-56613D01*
X82274Y-56781D01*
X82306Y-56834D01*
X82374Y-56866D01*
X82448Y-56883D01*
X82523Y-56886D01*
X82598Y-56874D01*
X82669Y-56847D01*
X82693Y-56834D01*
X82725Y-56781D01*
X82725Y-56890D01*
X82110Y-56890D01*
X82110Y-51110D01*
X84890Y-51110D01*
X84890Y-56890D01*
X84890Y-56890D01*
G37*
G54D14*
X84890Y-56890D02*
X84886Y-56890D01*
X84886Y-52476D01*
X84886Y-51476D01*
X84874Y-51401D01*
X84847Y-51330D01*
X84834Y-51306D01*
X84781Y-51274D01*
X84725Y-51331D01*
X84725Y-51218D01*
X84693Y-51165D01*
X84625Y-51133D01*
X84551Y-51116D01*
X84476Y-51113D01*
X84401Y-51125D01*
X84330Y-51152D01*
X84306Y-51165D01*
X84274Y-51218D01*
X84500Y-51443D01*
X84725Y-51218D01*
X84725Y-51331D01*
X84556Y-51500D01*
X84781Y-51725D01*
X84834Y-51693D01*
X84866Y-51625D01*
X84883Y-51551D01*
X84886Y-51476D01*
X84886Y-52476D01*
X84874Y-52401D01*
X84847Y-52330D01*
X84834Y-52306D01*
X84781Y-52274D01*
X84725Y-52331D01*
X84725Y-52218D01*
X84725Y-51781D01*
X84500Y-51556D01*
X84443Y-51613D01*
X84443Y-51500D01*
X84218Y-51274D01*
X84165Y-51306D01*
X84133Y-51374D01*
X84116Y-51448D01*
X84113Y-51523D01*
X84125Y-51598D01*
X84152Y-51669D01*
X84165Y-51693D01*
X84218Y-51725D01*
X84443Y-51500D01*
X84443Y-51613D01*
X84274Y-51781D01*
X84306Y-51834D01*
X84374Y-51866D01*
X84448Y-51883D01*
X84523Y-51886D01*
X84598Y-51874D01*
X84669Y-51847D01*
X84693Y-51834D01*
X84725Y-51781D01*
X84725Y-52218D01*
X84693Y-52165D01*
X84625Y-52133D01*
X84551Y-52116D01*
X84476Y-52113D01*
X84401Y-52125D01*
X84330Y-52152D01*
X84306Y-52165D01*
X84274Y-52218D01*
X84500Y-52443D01*
X84725Y-52218D01*
X84725Y-52331D01*
X84556Y-52500D01*
X84781Y-52725D01*
X84834Y-52693D01*
X84866Y-52625D01*
X84883Y-52551D01*
X84886Y-52476D01*
X84886Y-56890D01*
X84885Y-56890D01*
X84885Y-56462D01*
X84885Y-55462D01*
X84885Y-54462D01*
X84885Y-53462D01*
X84870Y-53388D01*
X84841Y-53318D01*
X84799Y-53255D01*
X84746Y-53201D01*
X84725Y-53187D01*
X84725Y-52781D01*
X84500Y-52556D01*
X84443Y-52613D01*
X84443Y-52500D01*
X84218Y-52274D01*
X84165Y-52306D01*
X84133Y-52374D01*
X84116Y-52448D01*
X84113Y-52523D01*
X84125Y-52598D01*
X84152Y-52669D01*
X84165Y-52693D01*
X84218Y-52725D01*
X84443Y-52500D01*
X84443Y-52613D01*
X84274Y-52781D01*
X84306Y-52834D01*
X84374Y-52866D01*
X84448Y-52883D01*
X84523Y-52886D01*
X84598Y-52874D01*
X84669Y-52847D01*
X84693Y-52834D01*
X84725Y-52781D01*
X84725Y-53187D01*
X84684Y-53159D01*
X84614Y-53130D01*
X84540Y-53115D01*
X84464Y-53114D01*
X84390Y-53128D01*
X84320Y-53157D01*
X84257Y-53198D01*
X84203Y-53251D01*
X84160Y-53313D01*
X84131Y-53383D01*
X84115Y-53456D01*
X84114Y-53532D01*
X84128Y-53606D01*
X84155Y-53676D01*
X84196Y-53740D01*
X84249Y-53794D01*
X84311Y-53837D01*
X84380Y-53867D01*
X84454Y-53884D01*
X84529Y-53885D01*
X84604Y-53872D01*
X84674Y-53845D01*
X84738Y-53804D01*
X84792Y-53752D01*
X84836Y-53691D01*
X84867Y-53622D01*
X84883Y-53548D01*
X84885Y-53462D01*
X84885Y-54462D01*
X84870Y-54388D01*
X84841Y-54318D01*
X84799Y-54255D01*
X84746Y-54201D01*
X84684Y-54159D01*
X84614Y-54130D01*
X84540Y-54115D01*
X84464Y-54114D01*
X84390Y-54128D01*
X84320Y-54157D01*
X84257Y-54198D01*
X84203Y-54251D01*
X84173Y-54295D01*
X84000Y-54295D01*
X83981Y-54296D01*
X83962Y-54298D01*
X83961Y-54298D01*
X83960Y-54298D01*
X83942Y-54304D01*
X83923Y-54309D01*
X83922Y-54310D01*
X83921Y-54310D01*
X83905Y-54319D01*
X83888Y-54328D01*
X83887Y-54328D01*
X83886Y-54329D01*
X83871Y-54341D01*
X83857Y-54353D01*
X83855Y-54354D01*
X83855Y-54354D01*
X83855Y-54354D01*
X83855Y-54355D01*
X83704Y-54505D01*
X83704Y-54502D01*
X83704Y-54500D01*
X83704Y-54500D01*
X83704Y-54500D01*
X83705Y-54500D01*
X83705Y-52000D01*
X83703Y-51981D01*
X83701Y-51962D01*
X83701Y-51961D01*
X83701Y-51960D01*
X83695Y-51942D01*
X83690Y-51923D01*
X83689Y-51922D01*
X83689Y-51921D01*
X83680Y-51905D01*
X83671Y-51888D01*
X83671Y-51887D01*
X83670Y-51886D01*
X83658Y-51871D01*
X83646Y-51857D01*
X83645Y-51855D01*
X83645Y-51855D01*
X83645Y-51855D01*
X83644Y-51855D01*
X83144Y-51355D01*
X83130Y-51343D01*
X83115Y-51330D01*
X83114Y-51330D01*
X83114Y-51329D01*
X83097Y-51320D01*
X83080Y-51311D01*
X83079Y-51311D01*
X83078Y-51310D01*
X83060Y-51305D01*
X83042Y-51299D01*
X83041Y-51299D01*
X83040Y-51299D01*
X83021Y-51297D01*
X83002Y-51295D01*
X83000Y-51295D01*
X83000Y-51295D01*
X83000Y-51295D01*
X83000Y-51295D01*
X82826Y-51295D01*
X82799Y-51255D01*
X82746Y-51201D01*
X82684Y-51159D01*
X82614Y-51130D01*
X82540Y-51115D01*
X82464Y-51114D01*
X82390Y-51128D01*
X82320Y-51157D01*
X82257Y-51198D01*
X82203Y-51251D01*
X82160Y-51313D01*
X82131Y-51383D01*
X82115Y-51456D01*
X82114Y-51532D01*
X82128Y-51606D01*
X82155Y-51676D01*
X82196Y-51740D01*
X82249Y-51794D01*
X82311Y-51837D01*
X82380Y-51867D01*
X82454Y-51884D01*
X82529Y-51885D01*
X82604Y-51872D01*
X82674Y-51845D01*
X82738Y-51804D01*
X82792Y-51752D01*
X82826Y-51705D01*
X82915Y-51705D01*
X83295Y-52084D01*
X83295Y-54415D01*
X82943Y-54766D01*
X82931Y-54768D01*
X82888Y-54786D01*
X82885Y-54788D01*
X82885Y-54462D01*
X82885Y-53462D01*
X82885Y-52462D01*
X82870Y-52388D01*
X82841Y-52318D01*
X82799Y-52255D01*
X82746Y-52201D01*
X82684Y-52159D01*
X82614Y-52130D01*
X82540Y-52115D01*
X82464Y-52114D01*
X82390Y-52128D01*
X82320Y-52157D01*
X82257Y-52198D01*
X82203Y-52251D01*
X82160Y-52313D01*
X82131Y-52383D01*
X82115Y-52456D01*
X82114Y-52532D01*
X82128Y-52606D01*
X82155Y-52676D01*
X82196Y-52740D01*
X82249Y-52794D01*
X82311Y-52837D01*
X82380Y-52867D01*
X82454Y-52884D01*
X82529Y-52885D01*
X82604Y-52872D01*
X82674Y-52845D01*
X82738Y-52804D01*
X82792Y-52752D01*
X82836Y-52691D01*
X82867Y-52622D01*
X82883Y-52548D01*
X82885Y-52462D01*
X82885Y-53462D01*
X82870Y-53388D01*
X82841Y-53318D01*
X82799Y-53255D01*
X82746Y-53201D01*
X82684Y-53159D01*
X82614Y-53130D01*
X82540Y-53115D01*
X82464Y-53114D01*
X82390Y-53128D01*
X82320Y-53157D01*
X82257Y-53198D01*
X82203Y-53251D01*
X82160Y-53313D01*
X82131Y-53383D01*
X82115Y-53456D01*
X82114Y-53532D01*
X82128Y-53606D01*
X82155Y-53676D01*
X82196Y-53740D01*
X82249Y-53794D01*
X82311Y-53837D01*
X82380Y-53867D01*
X82454Y-53884D01*
X82529Y-53885D01*
X82604Y-53872D01*
X82674Y-53845D01*
X82738Y-53804D01*
X82792Y-53752D01*
X82836Y-53691D01*
X82867Y-53622D01*
X82883Y-53548D01*
X82885Y-53462D01*
X82885Y-54462D01*
X82870Y-54388D01*
X82841Y-54318D01*
X82799Y-54255D01*
X82746Y-54201D01*
X82684Y-54159D01*
X82614Y-54130D01*
X82540Y-54115D01*
X82464Y-54114D01*
X82390Y-54128D01*
X82320Y-54157D01*
X82257Y-54198D01*
X82203Y-54251D01*
X82160Y-54313D01*
X82131Y-54383D01*
X82115Y-54456D01*
X82114Y-54532D01*
X82128Y-54606D01*
X82155Y-54676D01*
X82196Y-54740D01*
X82249Y-54794D01*
X82311Y-54837D01*
X82380Y-54867D01*
X82454Y-54884D01*
X82529Y-54885D01*
X82604Y-54872D01*
X82674Y-54845D01*
X82738Y-54804D01*
X82792Y-54752D01*
X82836Y-54691D01*
X82867Y-54622D01*
X82883Y-54548D01*
X82885Y-54462D01*
X82885Y-54788D01*
X82848Y-54812D01*
X82815Y-54844D01*
X82788Y-54883D01*
X82770Y-54927D01*
X82760Y-54973D01*
X82759Y-55020D01*
X82768Y-55066D01*
X82785Y-55110D01*
X82811Y-55149D01*
X82843Y-55183D01*
X82882Y-55210D01*
X82925Y-55229D01*
X82970Y-55239D01*
X82915Y-55295D01*
X82826Y-55295D01*
X82799Y-55255D01*
X82746Y-55201D01*
X82684Y-55159D01*
X82614Y-55130D01*
X82540Y-55115D01*
X82464Y-55114D01*
X82390Y-55128D01*
X82320Y-55157D01*
X82257Y-55198D01*
X82203Y-55251D01*
X82160Y-55313D01*
X82131Y-55383D01*
X82115Y-55456D01*
X82114Y-55532D01*
X82128Y-55606D01*
X82155Y-55676D01*
X82196Y-55740D01*
X82249Y-55794D01*
X82311Y-55837D01*
X82380Y-55867D01*
X82454Y-55884D01*
X82529Y-55885D01*
X82604Y-55872D01*
X82674Y-55845D01*
X82738Y-55804D01*
X82792Y-55752D01*
X82826Y-55705D01*
X83000Y-55705D01*
X83018Y-55703D01*
X83037Y-55701D01*
X83038Y-55701D01*
X83039Y-55701D01*
X83057Y-55695D01*
X83076Y-55690D01*
X83077Y-55689D01*
X83078Y-55689D01*
X83094Y-55680D01*
X83111Y-55671D01*
X83112Y-55671D01*
X83113Y-55670D01*
X83128Y-55658D01*
X83142Y-55646D01*
X83144Y-55645D01*
X83144Y-55645D01*
X83144Y-55645D01*
X83144Y-55644D01*
X84084Y-54705D01*
X84174Y-54705D01*
X84196Y-54740D01*
X84249Y-54794D01*
X84311Y-54837D01*
X84380Y-54867D01*
X84454Y-54884D01*
X84529Y-54885D01*
X84604Y-54872D01*
X84674Y-54845D01*
X84738Y-54804D01*
X84792Y-54752D01*
X84836Y-54691D01*
X84867Y-54622D01*
X84883Y-54548D01*
X84885Y-54462D01*
X84885Y-55462D01*
X84870Y-55388D01*
X84841Y-55318D01*
X84799Y-55255D01*
X84746Y-55201D01*
X84684Y-55159D01*
X84614Y-55130D01*
X84540Y-55115D01*
X84464Y-55114D01*
X84390Y-55128D01*
X84320Y-55157D01*
X84257Y-55198D01*
X84203Y-55251D01*
X84160Y-55313D01*
X84131Y-55383D01*
X84115Y-55456D01*
X84114Y-55532D01*
X84128Y-55606D01*
X84155Y-55676D01*
X84196Y-55740D01*
X84249Y-55794D01*
X84311Y-55837D01*
X84380Y-55867D01*
X84454Y-55884D01*
X84529Y-55885D01*
X84604Y-55872D01*
X84674Y-55845D01*
X84738Y-55804D01*
X84792Y-55752D01*
X84836Y-55691D01*
X84867Y-55622D01*
X84883Y-55548D01*
X84885Y-55462D01*
X84885Y-56462D01*
X84870Y-56388D01*
X84841Y-56318D01*
X84799Y-56255D01*
X84746Y-56201D01*
X84684Y-56159D01*
X84614Y-56130D01*
X84540Y-56115D01*
X84464Y-56114D01*
X84390Y-56128D01*
X84320Y-56157D01*
X84257Y-56198D01*
X84203Y-56251D01*
X84160Y-56313D01*
X84131Y-56383D01*
X84115Y-56456D01*
X84114Y-56532D01*
X84128Y-56606D01*
X84155Y-56676D01*
X84196Y-56740D01*
X84249Y-56794D01*
X84311Y-56837D01*
X84380Y-56867D01*
X84454Y-56884D01*
X84529Y-56885D01*
X84604Y-56872D01*
X84674Y-56845D01*
X84738Y-56804D01*
X84792Y-56752D01*
X84836Y-56691D01*
X84867Y-56622D01*
X84883Y-56548D01*
X84885Y-56462D01*
X84885Y-56890D01*
X82886Y-56890D01*
X82886Y-56476D01*
X82874Y-56401D01*
X82847Y-56330D01*
X82834Y-56306D01*
X82781Y-56274D01*
X82725Y-56331D01*
X82725Y-56218D01*
X82693Y-56165D01*
X82625Y-56133D01*
X82551Y-56116D01*
X82476Y-56113D01*
X82401Y-56125D01*
X82330Y-56152D01*
X82306Y-56165D01*
X82274Y-56218D01*
X82500Y-56443D01*
X82725Y-56218D01*
X82725Y-56331D01*
X82556Y-56500D01*
X82781Y-56725D01*
X82834Y-56693D01*
X82866Y-56625D01*
X82883Y-56551D01*
X82886Y-56476D01*
X82886Y-56890D01*
X82725Y-56890D01*
X82725Y-56781D01*
X82500Y-56556D01*
X82443Y-56613D01*
X82443Y-56500D01*
X82218Y-56274D01*
X82165Y-56306D01*
X82133Y-56374D01*
X82116Y-56448D01*
X82113Y-56523D01*
X82125Y-56598D01*
X82152Y-56669D01*
X82165Y-56693D01*
X82218Y-56725D01*
X82443Y-56500D01*
X82443Y-56613D01*
X82274Y-56781D01*
X82306Y-56834D01*
X82374Y-56866D01*
X82448Y-56883D01*
X82523Y-56886D01*
X82598Y-56874D01*
X82669Y-56847D01*
X82693Y-56834D01*
X82725Y-56781D01*
X82725Y-56890D01*
X82110Y-56890D01*
X82110Y-51110D01*
X84890Y-51110D01*
X84890Y-56890D01*
M02*
